Disaster Relief Project: Template
…
    out = tibble(log_loss, AUROC) %>% 
      mutate(fold = i, tuning = k, edf=n.val/k )
    
    perf = bind_rows(perf, out)
  }
}

4.3.1 Tuning Parameter \(k\)

How were tuning parameter(s) selected? What value is used? Plots/Tables/etc.

perf

#> # A tibble: 90 x 5
#>    log_loss AUROC  fold tuning   edf
#>       <dbl> <dbl> <int>  <dbl> <dbl>
#>  1     34.9 0.965     1     15  422.
#>  2     34.9 0.965     1     12  527.
#>  3     34.9 0.965     1     10  632.
#>  4     34.9 0.960     1      8  791.
#>  5     34.9 0.967     1      7  904.
#>  6     34.9 0.960     1      6 1054.
#>  7     34.9 0.965     1      5 1265 
#>  8     34.9 0.948     1      4 1581.
#>  9     34.9 0.970     1      3 2108.
#> 10     34.9 0.980     2     15  422.
#> # ... with 80 more rows
…
Threshold. We use the same range of threshold [0.05,0.2]

#-- Calculate for range of thresholds
perf_thres = map_df(thres, ~get_conf(., y=knn.data$Class, p_hat = pred)) %>% mutate(cost = FN*5 + FP*1)

res <- perf_thres %>%
slice_min(cost) %>% # choose threshold with minimum costs
transmute(threshold,
Accuracy = (TP + TN)/(TP + FP + FN + TN),
TPR = TP / (TP + FN),
FPR = FP / (FP + TN),
PRE = TP / (TP + FP))
res

#> # A tibble: 50 x 5
#>    threshold Accuracy   TPR     FPR   PRE
#>        <dbl>    <dbl> <dbl>   <dbl> <dbl>
#>  1    0.05      0.997 0.956 0.00216 0.936
#>  2    0.0531    0.997 0.956 0.00216 0.936
#>  3    0.0561    0.997 0.956 0.00216 0.936
#>  4    0.0592    0.997 0.956 0.00216 0.936
#>  5    0.0622    0.997 0.956 0.00216 0.936
#>  6    0.0653    0.997 0.956 0.00216 0.936
#>  7    0.0684    0.997 0.956 0.00216 0.936
#>  8    0.0714    0.997 0.956 0.00216 0.936
#>  9    0.0745    0.997 0.956 0.00216 0.936
#> 10    0.0776    0.997 0.956 0.00216 0.936
#> # ... with 40 more rows
…
eln_cv_AUROC = yardstick::roc_auc_vec(data$Class, as.numeric(pred.enet), event_level = "second")

perf_thres = map_df(thres, ~get_conf(., y=pred_data$y, p_hat = pred_data$p_hat)) %>% 
  mutate(cost = FN*5 + FP*1)
perf_thres

#> # A tibble: 50 x 6
#>    threshold    TP    FP    FN    TN  cost
#>        <dbl> <int> <int> <int> <int> <dbl>
#>  1    0.05    2018   611     4 60608   631
#>  2    0.0531  2018   599     4 60620   619
#>  3    0.0561  2018   586     4 60633   606
#>  4    0.0592  2018   582     4 60637   602
#>  5    0.0622  2017   574     5 60645   599
#>  6    0.0653  2015   569     7 60650   604
#>  7    0.0684  2003   455    19 60764   550
#>  8    0.0714  1996   363    26 60856   493
#>  9    0.0745  1992   259    30 60960   409
#> 10    0.0776  1991   252    31 60967   407
#> # ... with 40 more rows
…
eln_AUROC = yardstick::roc_auc_vec(holdout_data$bluetarp, as.numeric(pred), event_level = "second")
perf_thres = map_df(thres, ~get_conf(., y=pred_data$y, p_hat = pred_data$p_hat)) %>% 
  mutate(cost = FN*5 + FP*1)
perf_thres

#> # A tibble: 50 x 6
#>    threshold    TP    FP    FN      TN  cost
#>        <dbl> <int> <int> <int>   <int> <dbl>
#>  1    0.05    1599     0 17327 1989697 86635
#>  2    0.0531  1510     0 17416 1989697 87080
#>  3    0.0561  1409     0 17517 1989697 87585
#>  4    0.0592  1331     0 17595 1989697 87975
#>  5    0.0622  1216     0 17710 1989697 88550
#>  6    0.0653  1132     0 17794 1989697 88970
#>  7    0.0684  1053     0 17873 1989697 89365
#>  8    0.0714   995     0 17931 1989697 89655
#>  9    0.0745   942     0 17984 1989697 89920
#> 10    0.0776   882     0 18044 1989697 90220
#> # ... with 40 more rows
…
    perf = bind_rows(perf, eval)
  }
}

4.5.1 Tuning Parameters

perf

#> # A tibble: 48 x 8
#>    log_loss AUROC  fold tuning n.val kernel gamma      cost
#>       <dbl> <dbl> <int>  <int> <int> <chr>  <dbl>     <dbl>
#>  1  0.0225  0.997     1      1  6325 radial 0.125      0.01
#>  2  0.0119  1.00      1      2  6325 radial 0.125      2.15
#>  3  0.00907 1.00      1      3  6325 radial 0.125    464.  
#>  4  0.00857 1.00      1      4  6325 radial 0.125 100000   
#>  5  0.0201  0.999     1      5  6325 radial 0.75       0.01
#>  6  0.0104  1.00      1      6  6325 radial 0.75       2.15
#>  7  0.00893 1.00      1      7  6325 radial 0.75     464.  
#>  8  0.0103  1.00      1      8  6325 radial 0.75  100000   
#>  9  0.0203  0.999     1      9  6325 radial 1.38       0.01
#> 10  0.00988 1.00      1     10  6325 radial 1.38       2.15
#> # ... with 38 more rows
…
lda_cv_AUROC = yardstick::roc_auc_vec(data$Class, as.numeric(pred), event_level = "second")
perf_thres = map_df(thres, ~get_conf(., y=data$Class, p_hat = pred)) %>%
  mutate(cost = FN*5 + FP*1)

res <- perf_thres %>%
  slice_min(cost) %>% # choose threshold with minimum costs
  transmute(threshold,Accuracy = (TP + TN)/(TP + FP + FN + TN),
TPR = TP / (TP + FN),
FPR = FP / (FP + TN),
PRE = TP / (TP + FP))
res

#> # A tibble: 50 x 5
#>    threshold Accuracy   TPR    FPR   PRE
#>        <dbl>    <dbl> <dbl>  <dbl> <dbl>
#>  1    0.05      0.984 0.801 0.0101 0.724
#>  2    0.0531    0.984 0.801 0.0101 0.724
#>  3    0.0561    0.984 0.801 0.0101 0.724
#>  4    0.0592    0.984 0.801 0.0101 0.724
#>  5    0.0622    0.984 0.801 0.0101 0.724
#>  6    0.0653    0.984 0.801 0.0101 0.724
#>  7    0.0684    0.984 0.801 0.0101 0.724
#>  8    0.0714    0.984 0.801 0.0101 0.724
#>  9    0.0745    0.984 0.801 0.0101 0.724
#> 10    0.0776    0.984 0.801 0.0101 0.724
#> # ... with 40 more rows
…
lda_AUROC = yardstick::roc_auc_vec(holdout_data$bluetarp, as.numeric(pred), event_level = "second")
perf_thres = map_df(thres, ~get_conf(., y=holdout_data$bluetarp, p_hat = pred)) %>%
  mutate(cost = FN*5 + FP*1)

res <- perf_thres %>%
  slice_min(cost) %>% # choose threshold with minimum costs
  transmute(threshold,Accuracy = (TP + TN)/(TP + FP + FN + TN),
TPR = TP / (TP + FN),
FPR = FP / (FP + TN),
PRE = TP / (TP + FP))
res

#> # A tibble: 50 x 5
#>    threshold Accuracy   TPR    FPR   PRE
#>        <dbl>    <dbl> <dbl>  <dbl> <dbl>
#>  1    0.05      0.981 0.846 0.0172 0.319
#>  2    0.0531    0.981 0.846 0.0172 0.319
#>  3    0.0561    0.981 0.846 0.0172 0.319
#>  4    0.0592    0.981 0.846 0.0172 0.319
#>  5    0.0622    0.981 0.846 0.0172 0.319
#>  6    0.0653    0.981 0.846 0.0172 0.319
#>  7    0.0684    0.981 0.846 0.0172 0.319
#>  8    0.0714    0.981 0.846 0.0172 0.319
#>  9    0.0745    0.981 0.846 0.0172 0.319
#> 10    0.0776    0.981 0.846 0.0172 0.319
#> # ... with 40 more rows
…
qda_cv_AUROC = yardstick::roc_auc_vec(data$Class, as.numeric(pred), event_level = "second")
perf_thres = map_df(thres, ~get_conf(., y=data$Class, p_hat = pred)) %>%
  mutate(cost = FN*5 + FP*1)

res <- perf_thres %>%
  slice_min(cost) %>% # choose threshold with minimum costs
  transmute(threshold,Accuracy = (TP + TN)/(TP + FP + FN + TN),
TPR = TP / (TP + FN),
FPR = FP / (FP + TN),
PRE = TP / (TP + FP))
res

#> # A tibble: 50 x 5
#>    threshold Accuracy   TPR      FPR   PRE
#>        <dbl>    <dbl> <dbl>    <dbl> <dbl>
#>  1    0.05      0.995 0.840 0.000294 0.990
#>  2    0.0531    0.995 0.840 0.000294 0.990
#>  3    0.0561    0.995 0.840 0.000294 0.990
#>  4    0.0592    0.995 0.840 0.000294 0.990
#>  5    0.0622    0.995 0.840 0.000294 0.990
#>  6    0.0653    0.995 0.840 0.000294 0.990
#>  7    0.0684    0.995 0.840 0.000294 0.990
#>  8    0.0714    0.995 0.840 0.000294 0.990
#>  9    0.0745    0.995 0.840 0.000294 0.990
#> 10    0.0776    0.995 0.840 0.000294 0.990
#> # ... with 40 more rows
…
qda_AUROC = yardstick::roc_auc_vec(holdout_data$bluetarp, as.numeric(pred), event_level = "second")
perf_thres = map_df(thres, ~get_conf(., y=holdout_data$bluetarp, p_hat = pred)) %>%
  mutate(cost = FN*5 + FP*1)

res <- perf_thres %>%
  slice_min(cost) %>% # choose threshold with minimum costs
  transmute(threshold,Accuracy = (TP + TN)/(TP + FP + FN + TN),
TPR = TP / (TP + FN),
FPR = FP / (FP + TN),
PRE = TP / (TP + FP))
res

#> # A tibble: 50 x 5
#>    threshold Accuracy   TPR     FPR   PRE
#>        <dbl>    <dbl> <dbl>   <dbl> <dbl>
#>  1    0.05      0.995 0.693 0.00183 0.782
#>  2    0.0531    0.995 0.693 0.00183 0.782
#>  3    0.0561    0.995 0.693 0.00183 0.782
#>  4    0.0592    0.995 0.693 0.00183 0.782
#>  5    0.0622    0.995 0.693 0.00183 0.782
#>  6    0.0653    0.995 0.693 0.00183 0.782
#>  7    0.0684    0.995 0.693 0.00183 0.782
#>  8    0.0714    0.995 0.693 0.00183 0.782
#>  9    0.0745    0.995 0.693 0.00183 0.782
#> 10    0.0776    0.995 0.693 0.00183 0.782
#> # ... with 40 more rows
…
    perf = bind_rows(perf, out)
  }
}

4.9.1 Tuning Parameters

Cross-validation performance So, mtry = 1 has the least log_loss and largest avg_AUROC.

perf

#> # A tibble: 30 x 8
#>    log_loss AUROC  fold tuning n.val  mtry ntree errorrate
#>       <dbl> <dbl> <int>  <int> <int> <dbl> <dbl>     <dbl>
#>  1  0.00917 1.00      1      1  6325     1   200   0.00293
#>  2  0.0134  0.997     1      2  6325     2   200   0.00299
#>  3  0.0133  0.997     1      3  6325     3   200   0.00309
#>  4  0.00843 1.00      2      1  6324     1   200   0.00307
#>  5  0.0173  0.995     2      2  6324     2   200   0.00306
#>  6  0.0174  0.995     2      3  6324     3   200   0.00314
#>  7  0.00724 1.00      3      1  6324     1   200   0.00311
#>  8  0.0158  0.995     3      2  6324     2   200   0.00309
#>  9  0.0158  0.995     3      3  6324     3   200   0.00322
#> 10  0.00906 1.00      4      1  6324     1   200   0.00292
#> # ... with 20 more rows
…
